(footprint "sk12 switch" (version 20211014) (generator pcbnew)
  (layer "F.Cu")
  (tedit 0)
  (property "Field4" "SWCH-08261")
  (property "Sheetfile" "Schematics/ESP32.kicad_sch")
  (property "Sheetname" "Esp32")
  (attr through_hole)
  (fp_text reference "REF**" (at 0 -0.5 unlocked) (layer "F.SilkS")
    (effects (font (size 1 1) (thickness 0.15)))
    (tstamp 0b01bd68-feb2-4507-9f85-c809f5ece523)
  )
  (fp_text value "on/off" (at 0 1 unlocked) (layer "F.Fab")
    (effects (font (size 1 1) (thickness 0.15)))
    (tstamp 97bba273-b321-46ea-abd8-b1c5d7bac40c)
  )
  (fp_text user "gge4104" (at 0 -5.08) (layer "Cmts.User")
    (effects (font (size 1 1) (thickness 0.15)))
    (tstamp 55748261-7ffa-49e0-9bc5-e35871577ae7)
  )
  (fp_text user "${REFERENCE}" (at 0 2.5 unlocked) (layer "F.Fab")
    (effects (font (size 1 1) (thickness 0.15)))
    (tstamp 183d89f4-e8c4-4193-ab82-d89d6ce34409)
  )
  (fp_line (start 0 -11.28) (end 0 -7.28) (layer "F.SilkS") (width 0.254) (tstamp 36119855-9132-4fdf-b783-996b5c00347a))
  (fp_line (start -4.35 -2.88) (end -4.35 -3.771) (layer "F.SilkS") (width 0.254) (tstamp 5643eec8-14a8-4eec-a8ad-ff791cca46e2))
  (fp_line (start 4.349 -3.77) (end 4.349 -2.88) (layer "F.SilkS") (width 0.254) (tstamp 668c5dc2-a40b-4d7a-86a3-d9872ca06b49))
  (fp_line (start 4.349 -7.279) (end 4.349 -6.39) (layer "F.SilkS") (width 0.254) (tstamp 963dc19a-04b2-4635-9329-362170fe9cd6))
  (fp_line (start -4.351 -7.279) (end 4.349 -7.279) (layer "F.SilkS") (width 0.254) (tstamp 96e11c68-36f3-469e-951b-697fcb6dce50))
  (fp_line (start 4.35 -2.88) (end -4.35 -2.88) (layer "F.SilkS") (width 0.254) (tstamp b4b4664d-bf4d-455b-a6ef-5a25a889d086))
  (fp_line (start 2.075 -7.28) (end 2.075 -11.28) (layer "F.SilkS") (width 0.254) (tstamp bce18b2b-6da3-4e2e-9213-cd67c515de82))
  (fp_line (start 2.075 -11.28) (end 0 -11.28) (layer "F.SilkS") (width 0.254) (tstamp cabeeb2c-7357-4fdc-984e-ab90cd050946))
  (fp_line (start -4.35 -6.389) (end -4.35 -7.279) (layer "F.SilkS") (width 0.254) (tstamp d720d02a-5c5e-4ba7-95e1-31410403dca7))
  (pad "1" thru_hole circle (at 2 -5.08 180) (size 1.524 1.524) (drill 0.914) (layers *.Cu *.Paste *.Mask) (tstamp 8fc12961-9ac3-407f-92a2-5a75af58e1c8))
  (pad "2" thru_hole circle (at 0 -5.08 180) (size 1.524 1.524) (drill 0.914) (layers *.Cu *.Paste *.Mask) (tstamp f6609979-1b85-40a2-8cc1-0bbd860f1f84))
  (pad "3" thru_hole circle (at -2 -5.08 180) (size 1.524 1.524) (drill 0.914) (layers *.Cu *.Paste *.Mask) (tstamp 55ba0434-88ae-4b96-bb5b-ae98fe9fc299))
  (pad "4" thru_hole oval (at -4.15 -5.08 180) (size 1.4 2.2) (drill oval 0.8 1.6) (layers *.Cu *.Paste *.Mask) (tstamp 846e3e96-6c1d-48b4-9a9a-0faff04654cc))
  (pad "5" thru_hole oval (at 4.15 -5.08 180) (size 1.4 2.2) (drill oval 0.8 1.6) (layers *.Cu *.Paste *.Mask) (tstamp db183d5e-84e2-4255-83a2-7e8cc62d295b))
  (model "${KICAD6_3DMODEL_DIR}/Button_Switch_THT.3dshapes/SW_E-Switch_EG2219_DPDT_Angled.wrl"
    (offset (xyz 2.54 4.445 -1.27))
    (scale (xyz 0.6 0.6 0.7))
    (rotate (xyz 0 0 180))
  )
)
