(footprint "sop-8" (version 20211014) (generator pcbnew)
  (layer "F.Cu")
  (tedit 0)
  (property "Sheetfile" "Schematics/Charging.kicad_sch")
  (property "Sheetname" "Charging")
  (attr smd)
  (fp_text reference "REF**" (at 0 -0.5 unlocked) (layer "F.SilkS")
    (effects (font (size 1 1) (thickness 0.15)))
    (tstamp 486a9425-a381-45a9-bcb4-5416ed4a8589)
  )
  (fp_text value "TP4056" (at 0 1 unlocked) (layer "F.Fab")
    (effects (font (size 1 1) (thickness 0.15)))
    (tstamp 7e98c5a5-42fd-4832-a33b-0e789b809790)
  )
  (fp_text user "gge672f9f5ef3bd050c" (at 2.54 -2.54 180) (layer "Cmts.User")
    (effects (font (size 1 1) (thickness 0.15)))
    (tstamp bac13bf6-6e10-48aa-84cf-5a24059b3cd7)
  )
  (fp_text user "${REFERENCE}" (at 0 2.5 unlocked) (layer "F.Fab")
    (effects (font (size 1 1) (thickness 0.15)))
    (tstamp 28739999-e25f-4dc7-89ac-3aaaed65ed20)
  )
  (fp_line (start -1.981 1.956) (end 2.896 1.956) (layer "F.SilkS") (width 0.254) (tstamp 09db260a-ea02-4268-a66f-7b0804f669fe))
  (fp_line (start -1.981 -1.93) (end 2.896 -1.93) (layer "F.SilkS") (width 0.254) (tstamp 50b4f6c7-7f2c-4810-b918-7e2bf7928ea5))
  (fp_line (start 2.896 1.956) (end 2.896 -1.93) (layer "F.SilkS") (width 0.254) (tstamp 60340788-12ac-46bb-8a0c-b69313217a4e))
  (fp_line (start -1.981 1.93) (end -1.981 -1.93) (layer "F.SilkS") (width 0.254) (tstamp d150b8ae-edf8-467d-9f5c-ce4de8dfddb5))
  (fp_arc (start -2.182 2.438) (mid -2.182678 2.738003) (end -2.184539 2.438005) (layer "F.SilkS") (width 0.3) (tstamp fa99de61-dd03-4b76-978e-1d2969ba4881))
  (pad "1" smd oval (at -1.397 2.972 180) (size 0.6 1.6) (layers "F.Cu" "F.Paste" "F.Mask") (tstamp ff440af8-c447-453e-a317-a78f73482916))
  (pad "2" smd oval (at -0.127 2.972 180) (size 0.6 1.6) (layers "F.Cu" "F.Paste" "F.Mask") (tstamp 66fe5575-7093-4328-a16b-299ce1bd77c3))
  (pad "3" smd oval (at 1.143 2.972 180) (size 0.6 1.6) (layers "F.Cu" "F.Paste" "F.Mask") (tstamp d582c7bd-e52a-4a26-8106-cf970ea69a53))
  (pad "4" smd oval (at 2.413 2.972 180) (size 0.6 1.6) (layers "F.Cu" "F.Paste" "F.Mask") (tstamp 9cc84c7c-444c-4d87-87e5-fd0ba1cfc399))
  (pad "5" smd oval (at 2.413 -2.972 180) (size 0.6 1.6) (layers "F.Cu" "F.Paste" "F.Mask") (tstamp ffe28cb7-2999-4b7e-89e6-10d05b7a5b07))
  (pad "6" smd oval (at 1.143 -2.972 180) (size 0.6 1.6) (layers "F.Cu" "F.Paste" "F.Mask") (tstamp ab132239-98fe-47e1-9b11-73f0e69698e1))
  (pad "7" smd oval (at -0.127 -2.972 180) (size 0.6 1.6) (layers "F.Cu" "F.Paste" "F.Mask") (tstamp 60d8c9bc-dc28-44d2-beca-ee3537be6aea))
  (pad "8" smd oval (at -1.397 -2.972 180) (size 0.6 1.6) (layers "F.Cu" "F.Paste" "F.Mask") (tstamp ab8e7422-4cd9-4089-b517-a9483f26ee5d))
  (pad "9" smd rect (at 0.508 0 180) (size 3.5 2.5) (layers "F.Cu" "F.Paste" "F.Mask") (tstamp 6b9b0e21-782d-4658-87ef-f2e46b16a795))
  (model "C:/Users/Nomad/Downloads/TP4056 (1)/TP4056.step"
    (offset (xyz 0.5 0 0))
    (scale (xyz 1 1 1))
    (rotate (xyz -90 0 -90))
  )
)
