(footprint "SOT-223-3_TabPin2" (version 20211014) (generator pcbnew)
  (layer "F.Cu")
  (tedit 5A02FF57)
  (descr "module CMS SOT223 4 pins")
  (tags "CMS SOT")
  (property "Sheetfile" "Schematics/Charging.kicad_sch")
  (property "Sheetname" "Charging")
  (attr smd)
  (fp_text reference "REF**" (at -0.254 -2.286) (layer "F.SilkS")
    (effects (font (size 1 1) (thickness 0.15)))
    (tstamp 7299c018-998d-4e55-84a9-96f241975339)
  )
  (fp_text value "AMS1117-3.3" (at 0 4.5) (layer "F.Fab")
    (effects (font (size 1 1) (thickness 0.15)))
    (tstamp 1444b0dc-ddd5-4192-a38c-5961d732d0d3)
  )
  (fp_text user "${REFERENCE}" (at 0 0 90) (layer "F.Fab")
    (effects (font (size 0.8 0.8) (thickness 0.12)))
    (tstamp ffe09a93-f040-4490-84c2-250d2f2577ab)
  )
  (fp_line (start -4.1 -3.41) (end 1.91 -3.41) (layer "F.SilkS") (width 0.12) (tstamp 12b499be-7185-4749-9336-90d673173b15))
  (fp_line (start -1.85 3.41) (end 1.91 3.41) (layer "F.SilkS") (width 0.12) (tstamp 4f90bf3b-10b0-4471-ba02-96fc6749369b))
  (fp_line (start 1.91 -3.41) (end 1.91 -2.15) (layer "F.SilkS") (width 0.12) (tstamp 7d098e65-22dc-48e7-8456-6a4d19cc1bf4))
  (fp_line (start 1.91 3.41) (end 1.91 2.15) (layer "F.SilkS") (width 0.12) (tstamp 8e9b80a5-6232-472a-af74-43f591284dca))
  (fp_line (start 4.4 -3.6) (end -4.4 -3.6) (layer "F.CrtYd") (width 0.05) (tstamp 05b51a9a-d370-466a-b0f0-4457e21404db))
  (fp_line (start -4.4 -3.6) (end -4.4 3.6) (layer "F.CrtYd") (width 0.05) (tstamp 1602b1a6-5ec3-47dc-b6ad-2b08de876332))
  (fp_line (start -4.4 3.6) (end 4.4 3.6) (layer "F.CrtYd") (width 0.05) (tstamp 93302081-2f94-476f-a52f-a7098380cb85))
  (fp_line (start 4.4 3.6) (end 4.4 -3.6) (layer "F.CrtYd") (width 0.05) (tstamp 98615375-d8f1-440f-8c2f-0915876f72b7))
  (fp_line (start -0.85 -3.35) (end 1.85 -3.35) (layer "F.Fab") (width 0.1) (tstamp 0609855e-3b76-423c-9503-ecf323ca452a))
  (fp_line (start -1.85 -2.35) (end -1.85 3.35) (layer "F.Fab") (width 0.1) (tstamp cd60a969-0d7a-457b-bb51-3982b78dc347))
  (fp_line (start -1.85 -2.35) (end -0.85 -3.35) (layer "F.Fab") (width 0.1) (tstamp dbab100e-3493-4012-84a0-c5191fd886b4))
  (fp_line (start -1.85 3.35) (end 1.85 3.35) (layer "F.Fab") (width 0.1) (tstamp e73b9ce8-e6c0-44e5-94ac-96ce369c7988))
  (fp_line (start 1.85 -3.35) (end 1.85 3.35) (layer "F.Fab") (width 0.1) (tstamp f4bddee2-7aed-418b-b9ef-7595fa4f4ddd))
  (pad "1" smd rect (at -3.15 -2.3) (size 2 1.5) (layers "F.Cu" "F.Paste" "F.Mask") (tstamp 65a33cbb-a5d5-459e-857f-7c4dc5244b82))
  (pad "2" smd rect (at 3.15 0) (size 2 3.8) (layers "F.Cu" "F.Paste" "F.Mask") (tstamp 7d6c3a25-9e3a-497d-92bc-29c7b32db251))
  (pad "2" smd rect (at -3.15 0) (size 2 1.5) (layers "F.Cu" "F.Paste" "F.Mask") (tstamp b2af596d-26e1-495c-9933-a33eb5b72f87))
  (pad "3" smd rect (at -3.15 2.3) (size 2 1.5) (layers "F.Cu" "F.Paste" "F.Mask") (tstamp 9bb5108b-2563-456f-946c-297473066ab7))
  (model "${KICAD6_3DMODEL_DIR}/Package_TO_SOT_SMD.3dshapes/SOT-223.wrl"
    (offset (xyz 0 0 0))
    (scale (xyz 1 1 1))
    (rotate (xyz 0 0 0))
  )
)
