(footprint "ST7735" (version 20211014) (generator pcbnew)
  (layer "F.Cu")
  (tedit 0)
  (property "Sheetfile" "Schematics/ESP32.kicad_sch")
  (property "Sheetname" "Esp32")
  (attr smd)
  (fp_text reference "REF**" (at 0 -0.5 unlocked) (layer "F.SilkS")
    (effects (font (size 1 1) (thickness 0.15)))
    (tstamp a35b5f2b-d56f-4c40-bc60-1077de607591)
  )
  (fp_text value "ST7735" (at 0 1 unlocked) (layer "F.Fab")
    (effects (font (size 1 1) (thickness 0.15)))
    (tstamp 570f7438-e4c3-4da0-aa77-bda233fdf703)
  )
  (fp_text user "ggeb6977d71e7943f1d" (at 0 7.62) (layer "Cmts.User")
    (effects (font (size 1 1) (thickness 0.15)))
    (tstamp 8fbdfb18-5425-4d01-8816-d9cb1951ad00)
  )
  (fp_text user "${REFERENCE}" (at 0 2.5 unlocked) (layer "F.Fab")
    (effects (font (size 1 1) (thickness 0.15)))
    (tstamp d7887102-b9dd-4975-b3eb-53d291359d50)
  )
  (fp_line (start 23.38 -16.22) (end -20.32 -16.22) (layer "B.SilkS") (width 0.381) (tstamp 007e5d66-8913-4e21-b331-75dd75a09a5a))
  (fp_line (start -20.32 17.78) (end 23.38 17.78) (layer "B.SilkS") (width 0.381) (tstamp 00d77a0c-942a-4f86-85a9-17893e859f92))
  (fp_line (start 19.939 15.748) (end 23.241 15.748) (layer "B.SilkS") (width 0.254) (tstamp 20fbe9cb-8f65-43c3-a957-dd27fc512d05))
  (fp_line (start 12.614 -9.271) (end 12.614 10.922) (layer "B.SilkS") (width 0.254) (tstamp 22715d58-1839-4156-be1b-362166314d4c))
  (fp_line (start 23.241 -8.128) (end 19.939 -8.128) (layer "B.SilkS") (width 0.254) (tstamp 49d5fafd-68c6-4ae3-bcb2-5bdbc53647aa))
  (fp_line (start 23.241 15.748) (end 23.241 -8.128) (layer "B.SilkS") (width 0.254) (tstamp 88264ad9-a11d-4702-b361-b951e0e1c800))
  (fp_line (start -20.32 -16.22) (end -20.32 17.78) (layer "B.SilkS") (width 0.381) (tstamp 97bb6857-a20f-4614-9833-8f266bd96f3f))
  (fp_line (start 19.939 -8.128) (end 19.939 15.748) (layer "B.SilkS") (width 0.254) (tstamp a63f5438-ed08-4dd8-878c-4b601b215b0c))
  (fp_line (start 23.38 17.78) (end 23.38 -16.22) (layer "B.SilkS") (width 0.381) (tstamp c7176d3b-72c3-43db-8051-bd2fa461668a))
  (pad "1" smd rect (at 13.075 6.338) (size 5 0.5) (layers "B.Cu" "B.Paste" "B.Mask") (tstamp 5a62a43f-ca0c-40a1-822c-67853fb7b4df))
  (pad "2" smd rect (at 13.075 5.525) (size 5 0.5) (layers "B.Cu" "B.Paste" "B.Mask") (tstamp 4709827f-d693-4af7-bb6a-44dfdc8def99))
  (pad "3" smd rect (at 13.075 4.738) (size 5 0.5) (layers "B.Cu" "B.Paste" "B.Mask") (tstamp 61c61728-c43c-4102-8b35-9380f417299b))
  (pad "4" smd rect (at 13.075 3.925) (size 5 0.5) (layers "B.Cu" "B.Paste" "B.Mask") (tstamp 1cb127f8-2bd1-4b95-88c3-8630ed4ccf09))
  (pad "5" smd rect (at 13.075 3.138) (size 5 0.5) (layers "B.Cu" "B.Paste" "B.Mask") (tstamp 884deaf6-7ba1-40be-80aa-236039e02437))
  (pad "6" smd rect (at 13.075 2.325) (size 5 0.5) (layers "B.Cu" "B.Paste" "B.Mask") (tstamp 7a220042-a0cf-4e1c-802a-9e7395b40ea1))
  (pad "7" smd rect (at 13.075 1.537) (size 5 0.5) (layers "B.Cu" "B.Paste" "B.Mask") (tstamp d084a2c2-e295-4fe3-9238-57ede84b4881))
  (pad "8" smd rect (at 13.075 0.725) (size 5 0.5) (layers "B.Cu" "B.Paste" "B.Mask") (tstamp 466d35f1-3146-4868-8cfd-53e7bb6f11a7))
  (pad "9" smd rect (at 13.075 -0.063) (size 5 0.5) (layers "B.Cu" "B.Paste" "B.Mask") (tstamp 4ff38a6a-f243-4cde-9157-47da81a64025))
  (pad "10" smd rect (at 13.075 -0.876) (size 5 0.5) (layers "B.Cu" "B.Paste" "B.Mask") (tstamp 1646fd37-1dc2-4c1b-87c3-73577010bf7f))
  (pad "11" smd rect (at 13.075 -1.663) (size 5 0.5) (layers "B.Cu" "B.Paste" "B.Mask") (tstamp b815a17a-5e45-44fd-8665-280a3ff4dd65))
  (pad "12" smd rect (at 13.075 -2.476) (size 5 0.5) (layers "B.Cu" "B.Paste" "B.Mask") (tstamp 9a86de30-a0ba-4edc-8eef-05128ddf0581))
  (pad "13" smd rect (at 13.075 -3.238) (size 5 0.5) (layers "B.Cu" "B.Paste" "B.Mask") (tstamp a0fce5bb-7fff-4ff3-91ef-dfb50d5fb4f8))
  (pad "14" smd rect (at 13.075 -3.975) (size 5 0.5) (layers "B.Cu" "B.Paste" "B.Mask") (tstamp ee05af9e-bb77-4722-b4f7-3a27e7995985))
)
