M48
; DRILL file {KiCad (6.0.11)} date Sat Feb 25 11:26:48 2023
; FORMAT={-:-/ absolute / metric / decimal}
; #@! TF.CreationDate,2023-02-25T11:26:48-06:00
; #@! TF.GenerationSoftware,Kicad,Pcbnew,(6.0.11)
; #@! TF.FileFunction,Plated,1,2,PTH
FMAT,2
METRIC
; #@! TA.AperFunction,Plated,PTH,ViaDrill
T1C0.400
; #@! TA.AperFunction,Plated,PTH,ComponentDrill
T2C0.600
; #@! TA.AperFunction,Plated,PTH,ComponentDrill
T3C0.800
; #@! TA.AperFunction,Plated,PTH,ComponentDrill
T4C0.889
; #@! TA.AperFunction,Plated,PTH,ComponentDrill
T5C0.900
; #@! TA.AperFunction,Plated,PTH,ComponentDrill
T6C0.914
; #@! TA.AperFunction,Plated,PTH,ComponentDrill
T7C1.000
; #@! TA.AperFunction,Plated,PTH,ComponentDrill
T8C1.016
; #@! TA.AperFunction,Plated,PTH,ViaDrill
T9C3.200
%
G90
G05
T1
X112.776Y-119.126
X120.214Y-103.5
X120.214Y-121.0
X121.484Y-103.5
X123.952Y-114.808
X130.374Y-121.0
X130.81Y-108.966
X130.81Y-116.332
X131.644Y-121.0
X132.914Y-121.0
X133.713Y-111.615
X133.858Y-97.282
X134.366Y-128.524
X136.704Y-105.265
X136.704Y-106.535
X136.704Y-107.805
X136.704Y-109.075
X136.704Y-110.345
X136.704Y-111.615
X138.176Y-123.19
X138.176Y-134.62
X138.43Y-132.705
X139.192Y-121.92
X141.986Y-132.705
X142.494Y-122.936
X143.002Y-119.126
X143.256Y-102.108
X143.764Y-104.422
X154.94Y-108.575
X157.48Y-95.25
X161.544Y-97.536
X163.888Y-97.917
T4
X98.945Y-109.59
X98.945Y-114.588
X102.755Y-95.112
X102.755Y-100.111
X102.755Y-124.069
X102.755Y-129.066
X170.542Y-95.179
X170.542Y-100.177
X170.542Y-124.135
X170.542Y-129.133
X174.352Y-109.657
X174.352Y-114.655
T5
X145.893Y-98.679
X153.513Y-98.679
T6
X94.986Y-124.492
X94.986Y-126.492
X94.986Y-128.492
T7
X122.682Y-91.948
X125.222Y-91.948
X127.762Y-91.948
X130.302Y-91.948
X132.842Y-91.948
X135.382Y-91.948
X137.922Y-91.948
X140.462Y-91.948
X143.002Y-91.948
X150.388Y-91.902
X150.388Y-133.05
X152.888Y-91.902
X152.888Y-133.05
X159.258Y-91.948
X159.278Y-133.096
X161.758Y-91.948
X161.778Y-133.096
T8
X107.442Y-91.948
X109.982Y-91.948
X112.522Y-91.948
X115.062Y-91.948
X117.602Y-91.948
X120.142Y-91.948
T9
X100.838Y-104.648
X108.458Y-133.604
X176.276Y-104.648
X176.276Y-119.634
T2
G00X135.888Y-129.949
M15
G01X135.888Y-131.049
M16
G05
G00X135.888Y-134.279
M15
G01X135.888Y-135.079
M16
G05
G00X144.528Y-129.949
M15
G01X144.528Y-131.049
M16
G05
G00X144.528Y-134.279
M15
G01X144.528Y-135.079
M16
G05
T3
G00X95.386Y-122.342
M15
G01X94.587Y-122.342
M16
G05
G00X95.386Y-130.642
M15
G01X94.587Y-130.642
M16
G05
T0
M30
