%TF.GenerationSoftware,KiCad,Pcbnew,(6.0.11)*%
%TF.CreationDate,2023-02-25T11:26:49-06:00*%
%TF.ProjectId,Jade Rev8,4a616465-2052-4657-9638-2e6b69636164,1*%
%TF.SameCoordinates,Original*%
%TF.FileFunction,Drillmap*%
%TF.FilePolarity,Positive*%
%FSLAX45Y45*%
G04 Gerber Fmt 4.5, Leading zero omitted, Abs format (unit mm)*
G04 Created by KiCad (PCBNEW (6.0.11)) date 2023-02-25 11:26:49*
%MOMM*%
%LPD*%
G01*
G04 APERTURE LIST*
%ADD10C,0.254000*%
%ADD11C,0.300000*%
%ADD12C,0.200000*%
%ADD13C,0.065000*%
G04 APERTURE END LIST*
D10*
X18025800Y-9483800D02*
X18025800Y-13081000D01*
D11*
X9272400Y-13107400D02*
X9829800Y-13665200D01*
D10*
X9272400Y-13107400D02*
X9272400Y-9482300D01*
D11*
X17429800Y-13665200D02*
X18025800Y-13081000D01*
D10*
X9831200Y-8900000D02*
X17457400Y-8900000D01*
D11*
X18025800Y-9483800D02*
X17457400Y-8900000D01*
D10*
X17429800Y-13665200D02*
X9829800Y-13665200D01*
D11*
X9831200Y-8900000D02*
X9272400Y-9482300D01*
D12*
D13*
X13699300Y-13067400D02*
X13764300Y-13132400D01*
X13764300Y-13067400D02*
X13699300Y-13132400D01*
X14277300Y-13067400D02*
X14342300Y-13132400D01*
X14342300Y-13067400D02*
X14277300Y-13132400D01*
D12*
X9515019Y-13990676D02*
X9515019Y-13790676D01*
X9562638Y-13790676D01*
X9591210Y-13800200D01*
X9610257Y-13819248D01*
X9619781Y-13838295D01*
X9629305Y-13876390D01*
X9629305Y-13904962D01*
X9619781Y-13943057D01*
X9610257Y-13962105D01*
X9591210Y-13981152D01*
X9562638Y-13990676D01*
X9515019Y-13990676D01*
X9715019Y-13990676D02*
X9715019Y-13857343D01*
X9715019Y-13895438D02*
X9724543Y-13876390D01*
X9734067Y-13866867D01*
X9753114Y-13857343D01*
X9772162Y-13857343D01*
X9838829Y-13990676D02*
X9838829Y-13857343D01*
X9838829Y-13790676D02*
X9829305Y-13800200D01*
X9838829Y-13809724D01*
X9848352Y-13800200D01*
X9838829Y-13790676D01*
X9838829Y-13809724D01*
X9962638Y-13990676D02*
X9943590Y-13981152D01*
X9934067Y-13962105D01*
X9934067Y-13790676D01*
X10067400Y-13990676D02*
X10048352Y-13981152D01*
X10038829Y-13962105D01*
X10038829Y-13790676D01*
X10295971Y-13990676D02*
X10295971Y-13790676D01*
X10362638Y-13933533D01*
X10429305Y-13790676D01*
X10429305Y-13990676D01*
X10610257Y-13990676D02*
X10610257Y-13885914D01*
X10600733Y-13866867D01*
X10581686Y-13857343D01*
X10543590Y-13857343D01*
X10524543Y-13866867D01*
X10610257Y-13981152D02*
X10591210Y-13990676D01*
X10543590Y-13990676D01*
X10524543Y-13981152D01*
X10515019Y-13962105D01*
X10515019Y-13943057D01*
X10524543Y-13924009D01*
X10543590Y-13914486D01*
X10591210Y-13914486D01*
X10610257Y-13904962D01*
X10705495Y-13857343D02*
X10705495Y-14057343D01*
X10705495Y-13866867D02*
X10724543Y-13857343D01*
X10762638Y-13857343D01*
X10781686Y-13866867D01*
X10791210Y-13876390D01*
X10800733Y-13895438D01*
X10800733Y-13952581D01*
X10791210Y-13971628D01*
X10781686Y-13981152D01*
X10762638Y-13990676D01*
X10724543Y-13990676D01*
X10705495Y-13981152D01*
X10886448Y-13971628D02*
X10895971Y-13981152D01*
X10886448Y-13990676D01*
X10876924Y-13981152D01*
X10886448Y-13971628D01*
X10886448Y-13990676D01*
X10886448Y-13866867D02*
X10895971Y-13876390D01*
X10886448Y-13885914D01*
X10876924Y-13876390D01*
X10886448Y-13866867D01*
X10886448Y-13885914D01*
D13*
X9192400Y-14287700D02*
X9257400Y-14352700D01*
X9257400Y-14287700D02*
X9192400Y-14352700D01*
D12*
X9553114Y-14210676D02*
X9572162Y-14210676D01*
X9591210Y-14220200D01*
X9600733Y-14229724D01*
X9610257Y-14248771D01*
X9619781Y-14286867D01*
X9619781Y-14334486D01*
X9610257Y-14372581D01*
X9600733Y-14391628D01*
X9591210Y-14401152D01*
X9572162Y-14410676D01*
X9553114Y-14410676D01*
X9534067Y-14401152D01*
X9524543Y-14391628D01*
X9515019Y-14372581D01*
X9505495Y-14334486D01*
X9505495Y-14286867D01*
X9515019Y-14248771D01*
X9524543Y-14229724D01*
X9534067Y-14220200D01*
X9553114Y-14210676D01*
X9705495Y-14391628D02*
X9715019Y-14401152D01*
X9705495Y-14410676D01*
X9695971Y-14401152D01*
X9705495Y-14391628D01*
X9705495Y-14410676D01*
X9886448Y-14210676D02*
X9848352Y-14210676D01*
X9829305Y-14220200D01*
X9819781Y-14229724D01*
X9800733Y-14258295D01*
X9791210Y-14296390D01*
X9791210Y-14372581D01*
X9800733Y-14391628D01*
X9810257Y-14401152D01*
X9829305Y-14410676D01*
X9867400Y-14410676D01*
X9886448Y-14401152D01*
X9895971Y-14391628D01*
X9905495Y-14372581D01*
X9905495Y-14324962D01*
X9895971Y-14305914D01*
X9886448Y-14296390D01*
X9867400Y-14286867D01*
X9829305Y-14286867D01*
X9810257Y-14296390D01*
X9800733Y-14305914D01*
X9791210Y-14324962D01*
X10086448Y-14210676D02*
X9991210Y-14210676D01*
X9981686Y-14305914D01*
X9991210Y-14296390D01*
X10010257Y-14286867D01*
X10057876Y-14286867D01*
X10076924Y-14296390D01*
X10086448Y-14305914D01*
X10095971Y-14324962D01*
X10095971Y-14372581D01*
X10086448Y-14391628D01*
X10076924Y-14401152D01*
X10057876Y-14410676D01*
X10010257Y-14410676D01*
X9991210Y-14401152D01*
X9981686Y-14391628D01*
X10219781Y-14210676D02*
X10238829Y-14210676D01*
X10257876Y-14220200D01*
X10267400Y-14229724D01*
X10276924Y-14248771D01*
X10286448Y-14286867D01*
X10286448Y-14334486D01*
X10276924Y-14372581D01*
X10267400Y-14391628D01*
X10257876Y-14401152D01*
X10238829Y-14410676D01*
X10219781Y-14410676D01*
X10200733Y-14401152D01*
X10191210Y-14391628D01*
X10181686Y-14372581D01*
X10172162Y-14334486D01*
X10172162Y-14286867D01*
X10181686Y-14248771D01*
X10191210Y-14229724D01*
X10200733Y-14220200D01*
X10219781Y-14210676D01*
X10372162Y-14410676D02*
X10372162Y-14277343D01*
X10372162Y-14296390D02*
X10381686Y-14286867D01*
X10400733Y-14277343D01*
X10429305Y-14277343D01*
X10448352Y-14286867D01*
X10457876Y-14305914D01*
X10457876Y-14410676D01*
X10457876Y-14305914D02*
X10467400Y-14286867D01*
X10486448Y-14277343D01*
X10515019Y-14277343D01*
X10534067Y-14286867D01*
X10543590Y-14305914D01*
X10543590Y-14410676D01*
X10638829Y-14410676D02*
X10638829Y-14277343D01*
X10638829Y-14296390D02*
X10648352Y-14286867D01*
X10667400Y-14277343D01*
X10695971Y-14277343D01*
X10715019Y-14286867D01*
X10724543Y-14305914D01*
X10724543Y-14410676D01*
X10724543Y-14305914D02*
X10734067Y-14286867D01*
X10753114Y-14277343D01*
X10781686Y-14277343D01*
X10800733Y-14286867D01*
X10810257Y-14305914D01*
X10810257Y-14410676D01*
X11200733Y-14201152D02*
X11029305Y-14458295D01*
X11457876Y-14210676D02*
X11476924Y-14210676D01*
X11495971Y-14220200D01*
X11505495Y-14229724D01*
X11515019Y-14248771D01*
X11524543Y-14286867D01*
X11524543Y-14334486D01*
X11515019Y-14372581D01*
X11505495Y-14391628D01*
X11495971Y-14401152D01*
X11476924Y-14410676D01*
X11457876Y-14410676D01*
X11438828Y-14401152D01*
X11429305Y-14391628D01*
X11419781Y-14372581D01*
X11410257Y-14334486D01*
X11410257Y-14286867D01*
X11419781Y-14248771D01*
X11429305Y-14229724D01*
X11438828Y-14220200D01*
X11457876Y-14210676D01*
X11610257Y-14391628D02*
X11619781Y-14401152D01*
X11610257Y-14410676D01*
X11600733Y-14401152D01*
X11610257Y-14391628D01*
X11610257Y-14410676D01*
X11743590Y-14210676D02*
X11762638Y-14210676D01*
X11781686Y-14220200D01*
X11791209Y-14229724D01*
X11800733Y-14248771D01*
X11810257Y-14286867D01*
X11810257Y-14334486D01*
X11800733Y-14372581D01*
X11791209Y-14391628D01*
X11781686Y-14401152D01*
X11762638Y-14410676D01*
X11743590Y-14410676D01*
X11724543Y-14401152D01*
X11715019Y-14391628D01*
X11705495Y-14372581D01*
X11695971Y-14334486D01*
X11695971Y-14286867D01*
X11705495Y-14248771D01*
X11715019Y-14229724D01*
X11724543Y-14220200D01*
X11743590Y-14210676D01*
X11886448Y-14229724D02*
X11895971Y-14220200D01*
X11915019Y-14210676D01*
X11962638Y-14210676D01*
X11981686Y-14220200D01*
X11991209Y-14229724D01*
X12000733Y-14248771D01*
X12000733Y-14267819D01*
X11991209Y-14296390D01*
X11876924Y-14410676D01*
X12000733Y-14410676D01*
X12181686Y-14210676D02*
X12086448Y-14210676D01*
X12076924Y-14305914D01*
X12086448Y-14296390D01*
X12105495Y-14286867D01*
X12153114Y-14286867D01*
X12172162Y-14296390D01*
X12181686Y-14305914D01*
X12191209Y-14324962D01*
X12191209Y-14372581D01*
X12181686Y-14391628D01*
X12172162Y-14401152D01*
X12153114Y-14410676D01*
X12105495Y-14410676D01*
X12086448Y-14401152D01*
X12076924Y-14391628D01*
X12362638Y-14210676D02*
X12324543Y-14210676D01*
X12305495Y-14220200D01*
X12295971Y-14229724D01*
X12276924Y-14258295D01*
X12267400Y-14296390D01*
X12267400Y-14372581D01*
X12276924Y-14391628D01*
X12286448Y-14401152D01*
X12305495Y-14410676D01*
X12343590Y-14410676D01*
X12362638Y-14401152D01*
X12372162Y-14391628D01*
X12381686Y-14372581D01*
X12381686Y-14324962D01*
X12372162Y-14305914D01*
X12362638Y-14296390D01*
X12343590Y-14286867D01*
X12305495Y-14286867D01*
X12286448Y-14296390D01*
X12276924Y-14305914D01*
X12267400Y-14324962D01*
X12457876Y-14210676D02*
X12457876Y-14248771D01*
X12534067Y-14210676D02*
X12534067Y-14248771D01*
X12829305Y-14486867D02*
X12819781Y-14477343D01*
X12800733Y-14448771D01*
X12791209Y-14429724D01*
X12781686Y-14401152D01*
X12772162Y-14353533D01*
X12772162Y-14315438D01*
X12781686Y-14267819D01*
X12791209Y-14239248D01*
X12800733Y-14220200D01*
X12819781Y-14191628D01*
X12829305Y-14182105D01*
X12895971Y-14229724D02*
X12905495Y-14220200D01*
X12924543Y-14210676D01*
X12972162Y-14210676D01*
X12991209Y-14220200D01*
X13000733Y-14229724D01*
X13010257Y-14248771D01*
X13010257Y-14267819D01*
X13000733Y-14296390D01*
X12886448Y-14410676D01*
X13010257Y-14410676D01*
X13248352Y-14410676D02*
X13248352Y-14210676D01*
X13334067Y-14410676D02*
X13334067Y-14305914D01*
X13324543Y-14286867D01*
X13305495Y-14277343D01*
X13276924Y-14277343D01*
X13257876Y-14286867D01*
X13248352Y-14296390D01*
X13457876Y-14410676D02*
X13438828Y-14401152D01*
X13429305Y-14391628D01*
X13419781Y-14372581D01*
X13419781Y-14315438D01*
X13429305Y-14296390D01*
X13438828Y-14286867D01*
X13457876Y-14277343D01*
X13486448Y-14277343D01*
X13505495Y-14286867D01*
X13515019Y-14296390D01*
X13524543Y-14315438D01*
X13524543Y-14372581D01*
X13515019Y-14391628D01*
X13505495Y-14401152D01*
X13486448Y-14410676D01*
X13457876Y-14410676D01*
X13638828Y-14410676D02*
X13619781Y-14401152D01*
X13610257Y-14382105D01*
X13610257Y-14210676D01*
X13791209Y-14401152D02*
X13772162Y-14410676D01*
X13734067Y-14410676D01*
X13715019Y-14401152D01*
X13705495Y-14382105D01*
X13705495Y-14305914D01*
X13715019Y-14286867D01*
X13734067Y-14277343D01*
X13772162Y-14277343D01*
X13791209Y-14286867D01*
X13800733Y-14305914D01*
X13800733Y-14324962D01*
X13705495Y-14344009D01*
X13876924Y-14401152D02*
X13895971Y-14410676D01*
X13934067Y-14410676D01*
X13953114Y-14401152D01*
X13962638Y-14382105D01*
X13962638Y-14372581D01*
X13953114Y-14353533D01*
X13934067Y-14344009D01*
X13905495Y-14344009D01*
X13886448Y-14334486D01*
X13876924Y-14315438D01*
X13876924Y-14305914D01*
X13886448Y-14286867D01*
X13905495Y-14277343D01*
X13934067Y-14277343D01*
X13953114Y-14286867D01*
X14029305Y-14486867D02*
X14038828Y-14477343D01*
X14057876Y-14448771D01*
X14067400Y-14429724D01*
X14076924Y-14401152D01*
X14086448Y-14353533D01*
X14086448Y-14315438D01*
X14076924Y-14267819D01*
X14067400Y-14239248D01*
X14057876Y-14220200D01*
X14038828Y-14191628D01*
X14029305Y-14182105D01*
X14391209Y-14486867D02*
X14381686Y-14477343D01*
X14362638Y-14448771D01*
X14353114Y-14429724D01*
X14343590Y-14401152D01*
X14334067Y-14353533D01*
X14334067Y-14315438D01*
X14343590Y-14267819D01*
X14353114Y-14239248D01*
X14362638Y-14220200D01*
X14381686Y-14191628D01*
X14391209Y-14182105D01*
X14467400Y-14277343D02*
X14467400Y-14410676D01*
X14467400Y-14296390D02*
X14476924Y-14286867D01*
X14495971Y-14277343D01*
X14524543Y-14277343D01*
X14543590Y-14286867D01*
X14553114Y-14305914D01*
X14553114Y-14410676D01*
X14676924Y-14410676D02*
X14657876Y-14401152D01*
X14648352Y-14391628D01*
X14638828Y-14372581D01*
X14638828Y-14315438D01*
X14648352Y-14296390D01*
X14657876Y-14286867D01*
X14676924Y-14277343D01*
X14705495Y-14277343D01*
X14724543Y-14286867D01*
X14734067Y-14296390D01*
X14743590Y-14315438D01*
X14743590Y-14372581D01*
X14734067Y-14391628D01*
X14724543Y-14401152D01*
X14705495Y-14410676D01*
X14676924Y-14410676D01*
X14800733Y-14277343D02*
X14876924Y-14277343D01*
X14829305Y-14210676D02*
X14829305Y-14382105D01*
X14838828Y-14401152D01*
X14857876Y-14410676D01*
X14876924Y-14410676D01*
X15095971Y-14277343D02*
X15095971Y-14477343D01*
X15095971Y-14286867D02*
X15115019Y-14277343D01*
X15153114Y-14277343D01*
X15172162Y-14286867D01*
X15181686Y-14296390D01*
X15191209Y-14315438D01*
X15191209Y-14372581D01*
X15181686Y-14391628D01*
X15172162Y-14401152D01*
X15153114Y-14410676D01*
X15115019Y-14410676D01*
X15095971Y-14401152D01*
X15305495Y-14410676D02*
X15286448Y-14401152D01*
X15276924Y-14382105D01*
X15276924Y-14210676D01*
X15467400Y-14410676D02*
X15467400Y-14305914D01*
X15457876Y-14286867D01*
X15438828Y-14277343D01*
X15400733Y-14277343D01*
X15381686Y-14286867D01*
X15467400Y-14401152D02*
X15448352Y-14410676D01*
X15400733Y-14410676D01*
X15381686Y-14401152D01*
X15372162Y-14382105D01*
X15372162Y-14363057D01*
X15381686Y-14344009D01*
X15400733Y-14334486D01*
X15448352Y-14334486D01*
X15467400Y-14324962D01*
X15534067Y-14277343D02*
X15610257Y-14277343D01*
X15562638Y-14210676D02*
X15562638Y-14382105D01*
X15572162Y-14401152D01*
X15591209Y-14410676D01*
X15610257Y-14410676D01*
X15753114Y-14401152D02*
X15734067Y-14410676D01*
X15695971Y-14410676D01*
X15676924Y-14401152D01*
X15667400Y-14382105D01*
X15667400Y-14305914D01*
X15676924Y-14286867D01*
X15695971Y-14277343D01*
X15734067Y-14277343D01*
X15753114Y-14286867D01*
X15762638Y-14305914D01*
X15762638Y-14324962D01*
X15667400Y-14344009D01*
X15934067Y-14410676D02*
X15934067Y-14210676D01*
X15934067Y-14401152D02*
X15915019Y-14410676D01*
X15876924Y-14410676D01*
X15857876Y-14401152D01*
X15848352Y-14391628D01*
X15838828Y-14372581D01*
X15838828Y-14315438D01*
X15848352Y-14296390D01*
X15857876Y-14286867D01*
X15876924Y-14277343D01*
X15915019Y-14277343D01*
X15934067Y-14286867D01*
X16010257Y-14486867D02*
X16019781Y-14477343D01*
X16038828Y-14448771D01*
X16048352Y-14429724D01*
X16057876Y-14401152D01*
X16067400Y-14353533D01*
X16067400Y-14315438D01*
X16057876Y-14267819D01*
X16048352Y-14239248D01*
X16038828Y-14220200D01*
X16019781Y-14191628D01*
X16010257Y-14182105D01*
M02*
