"Source:","C:\Users\Nomad\Projects\Project Jade\PCB Project\Jade Rev8.kicad_sch"
"Date:","2/19/2023 7:00:36 PM"
"Tool:","Eeschema (6.0.11)"
"Generator:","C:\Program Files\KiCad\6.0\bin\scripting\plugins/bom_csv_grouped_by_value.py"
"Component Count:","35"

"Individual Components:"

"Item","Qty","Reference(s)","Value","LibPart","Footprint","Datasheet","Field4"
"","","B1","Button_D","SparkFun-Switches:MOMENTARY-SWITCH-SPST-SMD-5.2MM","Custom:Combo Button 8mm","","SWCH-08247"
"","","B2","Button_L","SparkFun-Switches:MOMENTARY-SWITCH-SPST-SMD-5.2MM","Custom:Combo Button 8mm","","SWCH-08247"
"","","B3","Button_UP","SparkFun-Switches:MOMENTARY-SWITCH-SPST-SMD-5.2MM","Custom:Combo Button 8mm","","SWCH-08247"
"","","B4","Button_C","SparkFun-Switches:MOMENTARY-SWITCH-SPST-SMD-5.2MM","Custom:Combo Button 8mm","","SWCH-08247"
"","","B5","Button_B","SparkFun-Switches:MOMENTARY-SWITCH-SPST-SMD-5.2MM","Custom:Combo Button 8mm","","SWCH-08247"
"","","B6","Button_A","SparkFun-Switches:MOMENTARY-SWITCH-SPST-SMD-5.2MM","Custom:Combo Button 8mm","","SWCH-08247"
"","","B7","PROG","SparkFun-Switches:MOMENTARY-SWITCH-SPST-SMD-5.2MM","Custom:SMD Button","","SWCH-08247"
"","","C1","FFC-8pin","Custom:FFC-8pin","Connector_FFC-FPC:Molex_200528-0080_1x08-1MP_P1.00mm_Horizontal","",""
"","","C2","Haptics","Custom:Con_2p","Connector_JST:JST_EH_B2B-EH-A_1x02_P2.50mm_Vertical","",""
"","","C3","Notif_LED","Custom:Con_2p","Connector_JST:JST_EH_B2B-EH-A_1x02_P2.50mm_Vertical","",""
"","","C4","10uf","Device:C","Resistors:0805","~",""
"","","C5","Buzzer","Custom:Con_2p","Connector_JST:JST_EH_B2B-EH-A_1x02_P2.50mm_Vertical","",""
"","","C6","6_PIN_SERIAL_CABLEPTH","SparkFun-Connectors:6_PIN_SERIAL_CABLEPTH","Connectors:FTDI_BASIC","","XXX-00000"
"","","C7","FFC-10pin","Custom:FFC-10pin","Connector_PinSocket_2.54mm:PinSocket_1x10_P2.54mm_Vertical","",""
"","","C8","10uf","Device:C","Capacitor_SMD:C_0805_2012Metric_Pad1.18x1.45mm_HandSolder","~",""
"","","D1","LED","Device:LED","LED_SMD:LED_0805_2012Metric_Pad1.15x1.40mm_HandSolder","~",""
"","","D2","LED","Device:LED","LED_SMD:LED_0805_2012Metric_Pad1.15x1.40mm_HandSolder","~",""
"","","D3","D_Schottky","Device:D_Schottky","Diode_THT:D_5KPW_P12.70mm_Horizontal","~",""
"","","J1","USB_C_Receptacle_USB2.0","Connector:USB_C_Receptacle_USB2.0","Connector_USB:USB_C_Receptacle_GCT_USB4105-xx-A_16P_TopMnt_Horizontal","https://www.usb.org/sites/default/files/documents/usb_type-c.zip",""
"","","Q1","MOSFET_PCH-SI2309DS","SparkFun-DiscreteSemi:MOSFET_PCH-SI2309DS","Silicon-Standard:SOT23-3","","TRANS-08285"
"","","R1","10k","Device:R","Resistors:0805","~",""
"","","R2","5K1","Device:R","Resistors:0805","~",""
"","","R3","5K1","Device:R","Resistors:0805","~",""
"","","R4","1k","Device:R","Resistors:0805","~",""
"","","R5","1k","Device:R","Resistors:0805","~",""
"","","R6","2k","Device:R","Resistors:0805","~",""
"","","R7","1k","Device:R","Resistors:0805","~",""
"","","R8","4.7k","Device:R","Resistors:0805","~",""
"","","S1","on/off","SparkFun-Switches:SWITCH-SPDT-PTH-11.6X4.0MM","Custom:450405020524","","SWCH-08261"
"","","U1","ESP32-S3-WROOM-1","Custom:ESP32-S3-WROOM-1","Espressif:ESP32-S3-WROOM-1","https://www.espressif.com/sites/default/files/documentation/esp32-s3-wroom-1_wroom-1u_datasheet_en.pdf",""
"","","U2","ST7735","Custom:ST7735","Custom:ST7735","",""
"","","U3","TP4056","Custom:TP4056","Package_SO:SOP-8_3.9x4.9mm_P1.27mm","",""
"","","U4","fs312","Custom:fs312","Package_TO_SOT_SMD:SOT-23-6_Handsoldering","",""
"","","U5","8205a","Custom:8205a","Package_TO_SOT_SMD:SOT-23-6_Handsoldering","",""
"","","U6","AMS1117-3.3","Regulator_Linear:AMS1117-3.3","Package_TO_SOT_SMD:SOT-223-3_TabPin2","http://www.advanced-monolithic.com/pdf/ds1117.pdf",""



"Collated Components:"

"Item","Qty","Reference(s)","Value","LibPart","Footprint","Datasheet","Field4"
"1","1","B1","Button_D","SparkFun-Switches:MOMENTARY-SWITCH-SPST-SMD-5.2MM","Custom:Combo Button 8mm","","SWCH-08247"
"2","1","B2","Button_L","SparkFun-Switches:MOMENTARY-SWITCH-SPST-SMD-5.2MM","Custom:Combo Button 8mm","","SWCH-08247"
"3","1","B3","Button_UP","SparkFun-Switches:MOMENTARY-SWITCH-SPST-SMD-5.2MM","Custom:Combo Button 8mm","","SWCH-08247"
"4","1","B4","Button_C","SparkFun-Switches:MOMENTARY-SWITCH-SPST-SMD-5.2MM","Custom:Combo Button 8mm","","SWCH-08247"
"5","1","B5","Button_B","SparkFun-Switches:MOMENTARY-SWITCH-SPST-SMD-5.2MM","Custom:Combo Button 8mm","","SWCH-08247"
"6","1","B6","Button_A","SparkFun-Switches:MOMENTARY-SWITCH-SPST-SMD-5.2MM","Custom:Combo Button 8mm","","SWCH-08247"
"7","1","B7","PROG","SparkFun-Switches:MOMENTARY-SWITCH-SPST-SMD-5.2MM","Custom:SMD Button","","SWCH-08247"
"8","1","C1","FFC-8pin","Custom:FFC-8pin","Connector_FFC-FPC:Molex_200528-0080_1x08-1MP_P1.00mm_Horizontal","",""
"9","1","C2","Haptics","Custom:Con_2p","Connector_JST:JST_EH_B2B-EH-A_1x02_P2.50mm_Vertical","",""
"10","1","C3","Notif_LED","Custom:Con_2p","Connector_JST:JST_EH_B2B-EH-A_1x02_P2.50mm_Vertical","",""
"11","1","C4","10uf","Device:C","Resistors:0805","~",""
"12","1","C5","Buzzer","Custom:Con_2p","Connector_JST:JST_EH_B2B-EH-A_1x02_P2.50mm_Vertical","",""
"13","1","C6","6_PIN_SERIAL_CABLEPTH","SparkFun-Connectors:6_PIN_SERIAL_CABLEPTH","Connectors:FTDI_BASIC","","XXX-00000"
"14","1","C7","FFC-10pin","Custom:FFC-10pin","Connector_PinSocket_2.54mm:PinSocket_1x10_P2.54mm_Vertical","",""
"15","1","C8","10uf","Device:C","Capacitor_SMD:C_0805_2012Metric_Pad1.18x1.45mm_HandSolder","~",""
"16","2","D1, D2","LED","Device:LED","LED_SMD:LED_0805_2012Metric_Pad1.15x1.40mm_HandSolder","~",""
"17","1","D3","D_Schottky","Device:D_Schottky","Diode_THT:D_5KPW_P12.70mm_Horizontal","~",""
"18","1","J1","USB_C_Receptacle_USB2.0","Connector:USB_C_Receptacle_USB2.0","Connector_USB:USB_C_Receptacle_GCT_USB4105-xx-A_16P_TopMnt_Horizontal","https://www.usb.org/sites/default/files/documents/usb_type-c.zip",""
"19","1","Q1","MOSFET_PCH-SI2309DS","SparkFun-DiscreteSemi:MOSFET_PCH-SI2309DS","Silicon-Standard:SOT23-3","","TRANS-08285"
"20","1","R1","10k","Device:R","Resistors:0805","~",""
"21","2","R2, R3","5K1","Device:R","Resistors:0805","~",""
"22","3","R4, R5, R7","1k","Device:R","Resistors:0805","~",""
"23","1","R6","2k","Device:R","Resistors:0805","~",""
"24","1","R8","4.7k","Device:R","Resistors:0805","~",""
"25","1","S1","on/off","SparkFun-Switches:SWITCH-SPDT-PTH-11.6X4.0MM","Custom:450405020524","","SWCH-08261"
"26","1","U1","ESP32-S3-WROOM-1","Custom:ESP32-S3-WROOM-1","Espressif:ESP32-S3-WROOM-1","https://www.espressif.com/sites/default/files/documentation/esp32-s3-wroom-1_wroom-1u_datasheet_en.pdf",""
"27","1","U2","ST7735","Custom:ST7735","Custom:ST7735","",""
"28","1","U3","TP4056","Custom:TP4056","Package_SO:SOP-8_3.9x4.9mm_P1.27mm","",""
"29","1","U4","fs312","Custom:fs312","Package_TO_SOT_SMD:SOT-23-6_Handsoldering","",""
"30","1","U5","8205a","Custom:8205a","Package_TO_SOT_SMD:SOT-23-6_Handsoldering","",""
"31","1","U6","AMS1117-3.3","Regulator_Linear:AMS1117-3.3","Package_TO_SOT_SMD:SOT-223-3_TabPin2","http://www.advanced-monolithic.com/pdf/ds1117.pdf",""
